List all system levels and their available time periods — cvd_area_system_level_time_periods • cvdprevent
…
# Explore all system levels and their available time periods
cvd_area_system_level_time_periods()
#> # A tibble: 130 × 8
#>    IsVisible NationalLevel SystemLevelID SystemLevelName EndDate       StartDate
#>    <chr>     <chr>                 <int> <chr>           <chr>         <chr>    
#>  1 Y         Y                         1 England         Tue, 31 Mar … Mon, 01 …
#>  2 Y         Y                         1 England         Wed, 31 Mar … Mon, 01 …
#>  3 Y         Y                         1 England         Thu, 30 Sep … Mon, 01 …
#>  4 Y         Y                         1 England         Thu, 31 Mar … Mon, 01 …
#>  5 Y         Y                         1 England         Thu, 30 Jun … Mon, 01 …
#>  6 Y         Y                         1 England         Fri, 30 Sep … Mon, 01 …
#>  7 Y         Y                         1 England         Sat, 31 Dec … Mon, 01 …
#>  8 Y         Y                         1 England         Fri, 31 Mar … Mon, 01 …
#>  9 Y         Y                         1 England         Fri, 30 Jun … Mon, 01 …
#> 10 Y         Y                         1 England         Sat, 30 Sep … Mon, 01 …
#> # ℹ 120 more rows
#> # ℹ 2 more variables: TimePeriodID <int>, TimePeriodName <chr>
…
