Retrieve details for a specific indicator — cvd_indicator_details • cvdprevent
…
# Find a valid indicator ID, then get its details
indicators <- cvd_indicator_list(time_period_id = 17, system_level_id = 5)
cvd_indicator_details(indicator_id = indicators$IndicatorID[1])
#> # A tibble: 28 × 11
#>    IndicatorCode IndicatorID IndicatorName     IndicatorOrder IndicatorShortName
#>    <chr>               <int> <chr>                      <int> <chr>             
#>  1 CVDP002HYP              2 Patients with GP…              5 Hypertension: Tre…
#>  2 CVDP002HYP              2 Patients with GP…              5 Hypertension: Tre…
#>  3 CVDP002HYP              2 Patients with GP…              5 Hypertension: Tre…
#>  4 CVDP002HYP              2 Patients with GP…              5 Hypertension: Tre…
#>  5 CVDP002HYP              2 Patients with GP…              5 Hypertension: Tre…
#>  6 CVDP002HYP              2 Patients with GP…              5 Hypertension: Tre…
#>  7 CVDP002HYP              2 Patients with GP…              5 Hypertension: Tre…
#>  8 CVDP002HYP              2 Patients with GP…              5 Hypertension: Tre…
#>  9 CVDP002HYP              2 Patients with GP…              5 Hypertension: Tre…
#> 10 CVDP002HYP              2 Patients with GP…              5 Hypertension: Tre…
#> # ℹ 18 more rows
#> # ℹ 6 more variables: NotificationCount <int>, AgeStandardised <chr>,
#> #   CategoryName <chr>, MetaData <chr>, MetaDataCategoryID <int>,
#> #   MetaDataTitle <chr>
…
