…
# Extract time series data for selected metrics
timeseries_data <- return_list$timeseries_data
timeseries_data |>
  dplyr::filter(MetricID %in% c(126, 132), !is.na(Value))
#> # A tibble: 28 × 7
#>    MetricID EndDate           Median StartDate TimePeriodID TimePeriodName Value
#>       <int> <chr>              <dbl> <chr>            <int> <chr>          <dbl>
#>  1      126 Tue, 31 Mar 2020…   84.6 Mon, 01 …            1 To March 2020  100  
#>  2      126 Wed, 31 Mar 2021…   85.7 Mon, 01 …            2 To March 2021  100  
#>  3      126 Thu, 30 Sep 2021…   86.7 Mon, 01 …            3 To September …  94.7
#>  4      126 Thu, 31 Mar 2022…   87.0 Mon, 01 …            4 To March 2022   94.7
#>  5      126 Thu, 30 Jun 2022…   86.7 Mon, 01 …            5 To June 2022    88.9
#>  6      126 Fri, 30 Sep 2022…   87.5 Mon, 01 …            6 To September …  90  
#>  7      126 Sat, 31 Dec 2022…   88.2 Mon, 01 …            7 To December 2…  94.1
#>  8      126 Fri, 31 Mar 2023…   89.5 Mon, 01 …            8 To March 2023   94.7
#>  9      126 Fri, 30 Jun 2023…   89.2 Mon, 01 …            9 To June 2023    94.7
#> 10      126 Sun, 31 Dec 2023…   90   Mon, 01 …           15 To December 2…  94.1
#> # ℹ 18 more rows
…
