List available indicators for a system level and time period — cvd_indicator_list • cvdprevent
…
# Find valid time period and system level IDs, then list all available indicators
valid_periods <- cvd_time_period_list()
valid_levels <- cvd_area_system_level(time_period_id = 17)
cvd_indicator_list(time_period_id = 17, system_level_id = valid_levels$SystemLevelID[1])
#> # A tibble: 40 × 12
#>    AxisCharacter DataUpdateInterval FormatDisplayName     HighestPriorityNotif…¹
#>    <chr>         <lgl>              <chr>                 <chr>                 
#>  1 "%"           NA                 Proportion %          NA                    
#>  2 "%"           NA                 Proportion %          Red                   
#>  3 "%"           NA                 Proportion %          Red                   
#>  4 "%"           NA                 Proportion %          NA                    
#>  5 "%"           NA                 Proportion %          NA                    
#>  6 "%"           NA                 Proportion %          NA                    
#>  7 " "           NA                 Rate per 10,000 pati… Blue                  
#>  8 " "           NA                 Rate per 10,000 pati… Blue                  
#>  9 "%"           NA                 Proportion %          NA                    
#> 10 "%"           NA                 Proportion %          NA                    
#> # ℹ 30 more rows
#> # ℹ abbreviated name: ¹​HighestPriorityNotificationType
#> # ℹ 8 more variables: IndicatorCode <chr>, IndicatorFormatID <int>,
#> #   IndicatorID <int>, IndicatorName <chr>, IndicatorOrder <int>,
#> #   IndicatorShortName <chr>, IndicatorStatus <lgl>, NotificationCount <int>
…
