…
## See also

[`cvd_indicator_types()`](https://craig-parylo.github.io/cvdprevent/reference/cvd_indicator_types.md),
[`cvd_time_period_system_levels()`](https://craig-parylo.github.io/cvdprevent/reference/cvd_time_period_system_levels.md)

## Examples

``` r
# NB, the following examples are not tested because they take longer than
# expected to return the results

# List all available time periods
cvd_time_period_list()
#> # A tibble: 27 × 6
#>    EndDate              IndicatorTypeID IndicatorTypeName StartDate TimePeriodID
#>    <chr>                          <int> <chr>             <chr>            <int>
#>  1 Mon, 30 Jun 2025 00…               1 Standard          Mon, 01 …           26
#>  2 Mon, 30 Jun 2025 00…               2 Outcomes          Mon, 01 …           27
#>  3 Mon, 31 Mar 2025 00…               2 Outcomes          Mon, 01 …           25
#>  4 Mon, 31 Mar 2025 00…               1 Standard          Mon, 01 …           24
#>  5 Tue, 31 Dec 2024 00…               2 Outcomes          Mon, 01 …           23
#>  6 Tue, 31 Dec 2024 00…               1 Standard          Mon, 01 …           22
#>  7 Mon, 30 Sep 2024 00…               1 Standard          Mon, 01 …           20
#>  8 Mon, 30 Sep 2024 00…               2 Outcomes          Mon, 01 …           21
#>  9 Sun, 30 Jun 2024 00…               1 Standard          Mon, 01 …           18
#> 10 Sun, 30 Jun 2024 00…               2 Outcomes          Mon, 01 …           19
#> # ℹ 17 more rows
#> # ℹ 1 more variable: TimePeriodName <chr>
…
