List all available indicator tags — cvd_indicator_tags • cvdprevent
…
#> 2 "%"           NA                 Proportion %           NA                    
#> 3 "%"           NA                 Proportion %           NA                    
#> 4 "%"           NA                 Proportion %           NA                    
#> 5 "%"           NA                 Proportion %           NA                    
#> 6 "%"           NA                 Proportion %           NA                    
#> 7 "%"           NA                 Proportion %           NA                    
#> 8 " "           NA                 Rate per 10,000 patie… Blue                  
#> # ℹ abbreviated name: ¹​HighestPriorityNotificationType
#> # ℹ 10 more variables: IndicatorCode <chr>, IndicatorFormatID <int>,
#> #   IndicatorID <int>, IndicatorName <chr>, IndicatorOrder <int>,
#> #   IndicatorShortName <chr>, IndicatorStatus <lgl>, IndicatorTypeID <int>,
#> #   IndicatorTypeName <chr>, NotificationCount <int>
#> 
#> $metric_categories
#> # A tibble: 144 × 7
#>    IndicatorID CategoryAttribute MetricCategoryID MetricCategoryName
#>          <int> <chr>                        <int> <chr>             
#>  1           1 Persons                         30 Persons           
#>  2           1 Female                          28 Female            
#>  3           1 Male                            29 Male              
#>  4           1 Male                             4 18-39             
#>  5           1 Female                           5 18-39             
#>  6           1 Persons                          6 18-39             
#>  7           1 Male                             7 40-59             
#>  8           1 Female                           8 40-59             
#>  9           1 Persons                          9 40-59             
#> 10           1 Male                            10 60-79             
#> # ℹ 134 more rows
#> # ℹ 3 more variables: MetricCategoryOrder <int>, MetricCategoryTypeName <chr>,
#> #   MetricID <int>
#> 
#> $metric_data
#> # A tibble: 144 × 1
#>    MetricID
#>       <int>
#>  1      190
#>  2      171
#>  3      172
#>  4      177
#>  5      180
#>  6      186
#>  7      175
#>  8      173
#>  9      187
#> 10      179
#> # ℹ 134 more rows
#> 
#> $timeseries_data
#> # A tibble: 495 × 7
#>    MetricID EndDate           Median StartDate TimePeriodID TimePeriodName Value
#>       <int> <chr>              <dbl> <chr>            <int> <chr>          <dbl>
#>  1      190 Tue, 31 Mar 2020…   2.65 Mon, 01 …            1 To March 2020   2.4 
#>  2      190 Wed, 31 Mar 2021…   2.5  Mon, 01 …            2 To March 2021   2.4 
#>  3      190 Thu, 30 Sep 2021…   2.5  Mon, 01 …            3 To September …  2.3 
#>  4      190 Thu, 31 Mar 2022…   2.54 Mon, 01 …            4 To March 2022   2.32
#>  5      171 Tue, 31 Mar 2020…   2.2  Mon, 01 …            1 To March 2020   2   
#>  6      171 Wed, 31 Mar 2021…   2.1  Mon, 01 …            2 To March 2021   2   
#>  7      171 Thu, 30 Sep 2021…   2.1  Mon, 01 …            3 To September …  2   
#>  8      171 Thu, 31 Mar 2022…   2.11 Mon, 01 …            4 To March 2022   1.94
#>  9      172 Tue, 31 Mar 2020…   3.1  Mon, 01 …            1 To March 2020   2.8 
#> 10      172 Wed, 31 Mar 2021…   3    Mon, 01 …            2 To March 2021   2.8 
#> # ℹ 485 more rows
…
