Retrieve raw metric values for multiple metrics, a specified area and time period — cvd_indicator_raw_data • cvdprevent
…
# Find a valid indicator IDs for a specified time period and system level,
# then retrieve raw data for one of these
indicators <- cvd_indicator_list(time_period_id = 22, system_level_id = 4)
cvd_indicator_raw_data(
  time_period_id = 22,
  system_level_id = 4,
  indicator_id = indicators$IndicatorID[1]
)
#> # A tibble: 24,349 × 18
#>    AreaCode AreaName CategoryAttribute Denominator Factor HighestPriorityNotif…¹
#>    <chr>    <chr>    <chr>                   <dbl> <lgl>  <chr>                 
#>  1 U60176   3 Centr… Persons                  6080 NA     Red                   
#>  2 U60176   3 Centr… Female                   2880 NA     Red                   
#>  3 U60176   3 Centr… Male                     3200 NA     Red                   
#>  4 U60176   3 Centr… Male                      105 NA     Red                   
#>  5 U60176   3 Centr… Female                     80 NA     Red                   
#>  6 U60176   3 Centr… Persons                   185 NA     Red                   
#>  7 U60176   3 Centr… Male                     1110 NA     Red                   
#>  8 U60176   3 Centr… Female                    905 NA     Red                   
#>  9 U60176   3 Centr… Persons                  2015 NA     Red                   
#> 10 U60176   3 Centr… Male                     1985 NA     Red                   
#> # ℹ 24,339 more rows
#> # ℹ abbreviated name: ¹​HighestPriorityNotificationType
#> # ℹ 12 more variables: IndicatorCode <chr>, IndicatorName <chr>,
#> #   IndicatorShortName <chr>, LowerConfidenceLimit <dbl>,
#> #   MetricCategoryName <chr>, MetricCategoryTypeName <chr>,
#> #   NotificationCount <int>, Numerator <dbl>, TimePeriodName <chr>,
#> #   UpperConfidenceLimit <dbl>, Value <dbl>, ValueNote <chr>
…
